%YAML 1.1
%TAG !u! tag:unity3d.com,2011:
--- !u!114 &11400000
MonoBehaviour:
  m_ObjectHideFlags: 0
  m_CorrespondingSourceObject: {fileID: 0}
  m_PrefabInstance: {fileID: 0}
  m_PrefabAsset: {fileID: 0}
  m_GameObject: {fileID: 0}
  m_Enabled: 1
  m_EditorHideFlags: 0
  m_Script: {fileID: 11500000, guid: 95e66c6366d904e98bc83428217d4fd7, type: 3}
  m_Name: CubeMaker
  m_EditorClassIdentifier: 
  _data:
    _json: '{"graph":{"variables":{"collection":{"$content":[],"$version":"A"},"$version":"A"},"controlInputDefinitions":[],"controlOutputDefinitions":[],"valueInputDefinitions":[],"valueOutputDefinitions":[],"title":null,"summary":null,"pan":{"x":181.0,"y":78.07739},"zoom":1.0,"elements":[{"coroutine":false,"defaultValues":{},"position":{"x":-204.0,"y":-144.0},"guid":"25f49e40-ef9d-45cd-a996-15d65780ed9f","$version":"A","$type":"Unity.VisualScripting.Start"},{"member":{"name":"identity","parameterTypes":null,"targetType":"UnityEngine.Quaternion","targetTypeName":"UnityEngine.Quaternion","$version":"A"},"defaultValues":{},"position":{"x":1268.0,"y":210.0},"guid":"8f287b6e-08b6-438f-b14f-6127e85c6d17","$version":"A","$type":"Unity.VisualScripting.GetMember","$id":"11"},{"member":{"name":"point","parameterTypes":null,"targetType":"UnityEngine.RaycastHit","targetTypeName":"UnityEngine.RaycastHit","$version":"A"},"defaultValues":{},"position":{"x":1140.0,"y":125.0},"guid":"1054e481-c09d-47ba-93cb-a57e14358f27","$version":"A","$type":"Unity.VisualScripting.GetMember","$id":"14"},{"chainable":false,"member":{"name":"Raycast","parameterTypes":["UnityEngine.Ray","UnityEngine.RaycastHit&"],"targetType":"UnityEngine.Physics","targetTypeName":"UnityEngine.Physics","$version":"A"},"defaultValues":{"%ray":{"origin":{"x":0.0,"y":0.0,"z":0.0},"direction":{"x":0.0,"y":0.0,"z":0.0},"$type":"UnityEngine.Ray"}},"position":{"x":944.0,"y":-6.0},"guid":"5d170fa3-a0a2-4119-8fbb-bebecabfcd33","$version":"A","$type":"Unity.VisualScripting.InvokeMember","$id":"17"},{"defaultValues":{},"position":{"x":1147.0,"y":-11.0},"guid":"83be5da4-cc0f-4686-acf5-05d8b814174d","$version":"A","$type":"Unity.VisualScripting.If","$id":"20"},{"member":{"name":"mousePosition","parameterTypes":null,"targetType":"UnityEngine.Input","targetTypeName":"UnityEngine.Input","$version":"A"},"defaultValues":{},"position":{"x":467.0,"y":193.0},"guid":"b106b4f7-57c1-4088-ace2-75b9f25206a6","$version":"A","$type":"Unity.VisualScripting.GetMember","$id":"22"},{"chainable":false,"member":{"name":"Instantiate","parameterTypes":["UnityEngine.Object","UnityEngine.Vector3","UnityEngine.Quaternion"],"targetType":"UnityEngine.GameObject","targetTypeName":"UnityEngine.GameObject","$version":"A"},"defaultValues":{"%original":{"$content":0,"$type":"UnityEngine.Object"},"%position":{"x":0.0,"y":0.0,"z":0.0,"$type":"UnityEngine.Vector3"}},"position":{"x":1393.0,"y":-30.0},"guid":"483c2190-3007-445c-8f14-e4cba2796b80","$version":"A","$type":"Unity.VisualScripting.InvokeMember","$id":"25"},{"member":{"name":"main","parameterTypes":null,"targetType":"UnityEngine.Camera","targetTypeName":"UnityEngine.Camera","$version":"A"},"defaultValues":{},"position":{"x":492.0,"y":84.0},"guid":"f981b3fa-dc6a-4712-8967-ca0feb0c3814","$version":"A","$type":"Unity.VisualScripting.GetMember","$id":"28"},{"defaultValues":{},"position":{"x":306.0,"y":17.0},"guid":"1af0bb6c-3a56-4827-98b2-4da625650eca","$version":"A","$type":"Unity.VisualScripting.If","$id":"31"},{"chainable":false,"member":{"name":"GetMouseButtonDown","parameterTypes":["System.Int32"],"targetType":"UnityEngine.Input","targetTypeName":"UnityEngine.Input","$version":"A"},"defaultValues":{"%button":{"$content":0,"$type":"System.Int32"}},"position":{"x":17.0,"y":31.0},"guid":"2889ad2f-9367-4479-af25-a9b55e47b6d3","$version":"A","$type":"Unity.VisualScripting.InvokeMember","$id":"33"},{"coroutine":false,"defaultValues":{},"position":{"x":-204.0,"y":60.0},"guid":"4bea87e1-92a7-442a-9906-07a7f132c196","$version":"A","$type":"Unity.VisualScripting.Update","$id":"36"},{"chainable":false,"member":{"name":"ScreenPointToRay","parameterTypes":["UnityEngine.Vector3"],"targetType":"UnityEngine.Camera","targetTypeName":"UnityEngine.Camera","$version":"A"},"defaultValues":{"target":null,"%pos":{"x":0.0,"y":0.0,"z":0.0,"$type":"UnityEngine.Vector3"}},"position":{"x":672.0,"y":-10.0},"guid":"d8744383-f02c-42d1-b1be-8132420de036","$version":"A","$type":"Unity.VisualScripting.InvokeMember","$id":"38"},{"sourceUnit":{"$ref":"36"},"sourceKey":"trigger","destinationUnit":{"$ref":"33"},"destinationKey":"enter","guid":"1fc81b87-e3ad-4e1e-b016-bbb9cf3fc23b","$type":"Unity.VisualScripting.ControlConnection"},{"sourceUnit":{"$ref":"38"},"sourceKey":"exit","destinationUnit":{"$ref":"17"},"destinationKey":"enter","guid":"75ffdf2b-cbc4-4a72-a5dc-166dc5f91105","$type":"Unity.VisualScripting.ControlConnection"},{"sourceUnit":{"$ref":"20"},"sourceKey":"ifTrue","destinationUnit":{"$ref":"25"},"destinationKey":"enter","guid":"38c13baf-c70f-4aa0-9aee-c33074b58255","$type":"Unity.VisualScripting.ControlConnection"},{"sourceUnit":{"$ref":"31"},"sourceKey":"ifTrue","destinationUnit":{"$ref":"38"},"destinationKey":"enter","guid":"0ab1fa85-9633-408f-8232-3743201115ed","$type":"Unity.VisualScripting.ControlConnection"},{"sourceUnit":{"$ref":"33"},"sourceKey":"exit","destinationUnit":{"$ref":"31"},"destinationKey":"enter","guid":"cec22f71-1a2e-4bb9-9aae-463bba4797f2","$type":"Unity.VisualScripting.ControlConnection"},{"sourceUnit":{"$ref":"17"},"sourceKey":"exit","destinationUnit":{"$ref":"20"},"destinationKey":"enter","guid":"4cbc3b9b-867e-4b93-9489-3c42cae656d9","$type":"Unity.VisualScripting.ControlConnection"},{"sourceUnit":{"$ref":"28"},"sourceKey":"value","destinationUnit":{"$ref":"38"},"destinationKey":"target","guid":"00139980-4aff-4a26-ba87-d80ae7c55447","$type":"Unity.VisualScripting.ValueConnection"},{"sourceUnit":{"$ref":"17"},"sourceKey":"&hitInfo","destinationUnit":{"$ref":"14"},"destinationKey":"target","guid":"7e1913b4-0d7e-4b29-9874-eb2f19cac1d8","$type":"Unity.VisualScripting.ValueConnection"},{"sourceUnit":{"$ref":"17"},"sourceKey":"result","destinationUnit":{"$ref":"20"},"destinationKey":"condition","guid":"9a229a5a-ed2c-458f-b7bd-ae1792fb315e","$type":"Unity.VisualScripting.ValueConnection"},{"sourceUnit":{"$ref":"38"},"sourceKey":"result","destinationUnit":{"$ref":"17"},"destinationKey":"%ray","guid":"21709555-3a0f-405b-851e-7107e0c53b5d","$type":"Unity.VisualScripting.ValueConnection"},{"sourceUnit":{"$ref":"22"},"sourceKey":"value","destinationUnit":{"$ref":"38"},"destinationKey":"%pos","guid":"f8b82343-d933-4585-a333-d3e09d39a350","$type":"Unity.VisualScripting.ValueConnection"},{"sourceUnit":{"$ref":"33"},"sourceKey":"result","destinationUnit":{"$ref":"31"},"destinationKey":"condition","guid":"b192a375-860b-4489-866a-8e2a859f883d","$type":"Unity.VisualScripting.ValueConnection"},{"sourceUnit":{"$ref":"14"},"sourceKey":"value","destinationUnit":{"$ref":"25"},"destinationKey":"%position","guid":"f0435daa-2167-487e-a24b-5931dbc8e528","$type":"Unity.VisualScripting.ValueConnection"},{"sourceUnit":{"$ref":"11"},"sourceKey":"value","destinationUnit":{"$ref":"25"},"destinationKey":"%rotation","guid":"f8534868-fb44-4e70-a7ff-e8fd6af3fdde","$type":"Unity.VisualScripting.ValueConnection"}],"$version":"A"}}'
    _objectReferences:
    - {fileID: 4566861751933649722, guid: dd3315db7e5901145868763018007a86, type: 3}
